…
The following objects are masked from 'package:base':

    intersect, setdiff, setequal, union

Warning message:
package 'dplyr' was built under R version 4.3.2 
Warning message:
package 'taskscheduleR' was built under R version 4.3.3 
Warning message:
package 'tidyr' was built under R version 4.3.2 
Warning message:
package 'ggplot2' was built under R version 4.3.2 
[[1]]
# A tibble: 34 × 9
   Símbolo   Nombre                 `Último precio` Cambio `Cambio de %` Volumen
   <chr>     <chr>                  <chr>           <chr>  <chr>         <chr>  
 1 ^IBEX     IBEX 35...             10.325,70       +20,00 +0,19%        149,08…
 2 ^GSPC     S&P 500                5.117,94        -5,75  -0,11%        2,207B 
 3 ^DJI      Dow Jones Industrial … 38.769,66       +46,97 +0,12%        303,96…
 4 ^IXIC     NASDAQ Composite       16.019,27       -65,84 -0,41%        4,41B  
 5 ^FTSE     FTSE 100               7.669,23        +9,49  +0,12%        0      
 6 ^FCHI     CAC 40                 8.019,73        -8,28  -0,10%        0      
 7 ^GDAXI    DAX PERFORMANCE-INDEX  17.746,27       -68,24 -0,38%        0      
 8 ^STOXX50E ESTX 50 PR.EUR         4.930,42        -30,69 -0,62%        0      
 9 ^N225     Nikkei 225             38.820,49       -868,… -2,19%        0      
10 ^HSI      HANG SENG INDEX        16.587,57       +234,… +1,43%        0      
# ℹ 24 more rows
# ℹ 3 more variables: `Intradía alto/bajo` <lgl>, `52 semanas` <lgl>,
#   `Gráfica de días` <lgl>

# A tibble: 34 × 9
   Símbolo   Nombre                 `Último precio` Cambio `Cambio de %` Volumen
   <chr>     <chr>                  <chr>           <chr>  <chr>         <chr>  
 1 ^IBEX     IBEX 35...             10.325,70       +20,00 +0,19%        149,08…
 2 ^GSPC     S&P 500                5.117,94        -5,75  -0,11%        2,207B 
 3 ^DJI      Dow Jones Industrial … 38.769,66       +46,97 +0,12%        303,96…
 4 ^IXIC     NASDAQ Composite       16.019,27       -65,84 -0,41%        4,41B  
 5 ^FTSE     FTSE 100               7.669,23        +9,49  +0,12%        0      
 6 ^FCHI     CAC 40                 8.019,73        -8,28  -0,10%        0      
 7 ^GDAXI    DAX PERFORMANCE-INDEX  17.746,27       -68,24 -0,38%        0      
 8 ^STOXX50E ESTX 50 PR.EUR         4.930,42        -30,69 -0,62%        0      
 9 ^N225     Nikkei 225             38.820,49       -868,… -2,19%        0      
10 ^HSI      HANG SENG INDEX        16.587,57       +234,… +1,43%        0      
# ℹ 24 more rows
# ℹ 3 more variables: `Intradía alto/bajo` <lgl>, `52 semanas` <lgl>,
#   `Gráfica de días` <lgl>
# A tibble: 34 × 7
   Símbolo  Nombre            `Último precio` Cambio `Cambio de %` Volumen Date 
   <chr>    <chr>             <chr>           <chr>  <chr>         <chr>   <chr>
 1 IBEX     IBEX 35...        10.325,70       +20,00 +0,19%        149,08… 00:15
 2 GSPC     S&P 500           5.117,94        -5,75  -0,11%        2,207B  00:15
 3 DJI      Dow Jones Indust… 38.769,66       +46,97 +0,12%        303,96… 00:15
 4 IXIC     NASDAQ Composite  16.019,27       -65,84 -0,41%        4,41B   00:15
 5 FTSE     FTSE 100          7.669,23        +9,49  +0,12%        0       00:15
 6 FCHI     CAC 40            8.019,73        -8,28  -0,10%        0       00:15
 7 GDAXI    DAX PERFORMANCE-… 17.746,27       -68,24 -0,38%        0       00:15
 8 STOXX50E ESTX 50 PR.EUR    4.930,42        -30,69 -0,62%        0       00:15
 9 N225     Nikkei 225        38.820,49       -868,… -2,19%        0       00:15
10 HSI      HANG SENG INDEX   16.587,57       +234,… +1,43%        0       00:15
# ℹ 24 more rows
# A tibble: 34 × 7
   Simbolo  Nombre              Ultimo_precio Cambio `Cambio_de_%` Volumen Date 
   <chr>    <chr>               <chr>         <chr>  <chr>         <chr>   <chr>
 1 IBEX     IBEX 35...          10.325,70     +20,00 +0,19%        149,08… 00:15
 2 GSPC     S&P 500             5.117,94      -5,75  -0,11%        2,207B  00:15
 3 DJI      Dow Jones Industri… 38.769,66     +46,97 +0,12%        303,96… 00:15
 4 IXIC     NASDAQ Composite    16.019,27     -65,84 -0,41%        4,41B   00:15
 5 FTSE     FTSE 100            7.669,23      +9,49  +0,12%        0       00:15
 6 FCHI     CAC 40              8.019,73      -8,28  -0,10%        0       00:15
 7 GDAXI    DAX PERFORMANCE-IN… 17.746,27     -68,24 -0,38%        0       00:15
 8 STOXX50E ESTX 50 PR.EUR      4.930,42      -30,69 -0,62%        0       00:15
 9 N225     Nikkei 225          38.820,49     -868,… -2,19%        0       00:15
10 HSI      HANG SENG INDEX     16.587,57     +234,… +1,43%        0       00:15
# ℹ 24 more rows
[[1]]
# A tibble: 2 × 5
  ``    Símbolo Mercado Moneda ``         
  <lgl> <chr>   <chr>   <chr>  <chr>      
1 NA    ES35    CFD     EUR    Tiempo real
2 NA    IBEX    Madrid  EUR    Demorada   

[[2]]
# A tibble: 35 × 10
   ``    Nombre            Último Máximo Mínimo Var.  `% Var.` Vol.  Hora  ``   
   <lgl> <chr>             <chr>  <chr>  <chr>  <chr> <chr>    <chr> <chr> <lgl>
 1 NA    Acciona           112,8… 115,7… 112,2… -1,0… -0,92%   150,… 11/03 NA   
 2 NA    Acerinox          9,640  9,644  9,550  +0,0… +0,35%   765,… 11/03 NA   
 3 NA    ACS               38,770 39,170 38,630 -0,3… -0,77%   478,… 11/03 NA   
 4 NA    Aena              179,10 180,65 178,15 -0,60 -0,33%   110,… 11/03 NA   
 5 NA    Amadeus           57,100 57,480 56,680 -0,2… -0,35%   491,… 11/03 NA   
 6 NA    ArcelorMittal     23,890 23,915 23,465 -0,0… -0,02%   235,… 11/03 NA   
 7 NA    Banco de Sabadell 1,3175 1,3245 1,2710 +0,0… +1,15%   24,3… 11/03 NA   
 8 NA    Bankinter         6,306  6,344  6,194  +0,0… +1,42%   4,29M 11/03 NA   
 9 NA    BBVA              9,936  9,974  9,830  +0,0… +0,38%   11,5… 11/03 NA   
10 NA    CaixaBank         4,410  4,413  4,345  +0,0… +0,87%   14,2… 11/03 NA   
# ℹ 25 more rows
…
[[10]]
# A tibble: 7 × 7
  ``    Nombre                   Último `% var.` Vol.    ``    ``   
  <lgl> <chr>                    <chr>  <chr>    <chr>   <lgl> <lgl>
1 NA    Soluciones Cuatroochenta 7,10   -5,96%   2,10K   NA    NA   
2 NA    PETROBRAS PN             6,740  -4,94%   6,60K   NA    NA   
3 NA    NBI Bearings Europe      4,300  -4,87%   5,13K   NA    NA   
4 NA    Catenon                  0,6900 -4,23%   6,29K   NA    NA   
5 NA    Energy Solar Tech        3,87   -4,22%   6,93K   NA    NA   
6 NA    Soltec Power             2,36   -4,15%   360,48K NA    NA   
7 NA    Reig Jofre               2,520  -3,45%   14,16K  NA    NA   

# A tibble: 35 × 10
   ``    Nombre            Último Máximo Mínimo Var.  `% Var.` Vol.  Hora  ``   
   <lgl> <chr>             <chr>  <chr>  <chr>  <chr> <chr>    <chr> <chr> <lgl>
 1 NA    Acciona           112,8… 115,7… 112,2… -1,0… -0,92%   150,… 11/03 NA   
 2 NA    Acerinox          9,640  9,644  9,550  +0,0… +0,35%   765,… 11/03 NA   
 3 NA    ACS               38,770 39,170 38,630 -0,3… -0,77%   478,… 11/03 NA   
 4 NA    Aena              179,10 180,65 178,15 -0,60 -0,33%   110,… 11/03 NA   
 5 NA    Amadeus           57,100 57,480 56,680 -0,2… -0,35%   491,… 11/03 NA   
 6 NA    ArcelorMittal     23,890 23,915 23,465 -0,0… -0,02%   235,… 11/03 NA   
 7 NA    Banco de Sabadell 1,3175 1,3245 1,2710 +0,0… +1,15%   24,3… 11/03 NA   
 8 NA    Bankinter         6,306  6,344  6,194  +0,0… +1,42%   4,29M 11/03 NA   
 9 NA    BBVA              9,936  9,974  9,830  +0,0… +0,38%   11,5… 11/03 NA   
10 NA    CaixaBank         4,410  4,413  4,345  +0,0… +0,87%   14,2… 11/03 NA   
# ℹ 25 more rows
# A tibble: 35 × 9
   Nombre            Último  Máximo  Mínimo  Var.   `% Var.` Vol.  Hora  country
   <chr>             <chr>   <chr>   <chr>   <chr>  <chr>    <chr> <chr> <chr>  
 1 Acciona           112,800 115,700 112,200 -1,050 -0,92%   150,… 11/03 Spain  
 2 Acerinox          9,640   9,644   9,550   +0,034 +0,35%   765,… 11/03 Spain  
 3 ACS               38,770  39,170  38,630  -0,300 -0,77%   478,… 11/03 Spain  
 4 Aena              179,10  180,65  178,15  -0,60  -0,33%   110,… 11/03 Spain  
 5 Amadeus           57,100  57,480  56,680  -0,200 -0,35%   491,… 11/03 Spain  
 6 ArcelorMittal     23,890  23,915  23,465  -0,005 -0,02%   235,… 11/03 Spain  
 7 Banco de Sabadell 1,3175  1,3245  1,2710  +0,01… +1,15%   24,3… 11/03 Spain  
 8 Bankinter         6,306   6,344   6,194   +0,088 +1,42%   4,29M 11/03 Spain  
 9 BBVA              9,936   9,974   9,830   +0,038 +0,38%   11,5… 11/03 Spain  
10 CaixaBank         4,410   4,413   4,345   +0,038 +0,87%   14,2… 11/03 Spain  
# ℹ 25 more rows
# A tibble: 35 × 9
   Nombre            ultimo  Maximo  Minimo  Var.   `%_Var.` Vol.  Hora  country
   <chr>             <chr>   <chr>   <chr>   <chr>  <chr>    <chr> <chr> <chr>  
 1 Acciona           112,800 115,700 112,200 -1,050 -0,92%   150,… 11/03 Spain  
 2 Acerinox          9,640   9,644   9,550   +0,034 +0,35%   765,… 11/03 Spain  
 3 ACS               38,770  39,170  38,630  -0,300 -0,77%   478,… 11/03 Spain  
 4 Aena              179,10  180,65  178,15  -0,60  -0,33%   110,… 11/03 Spain  
 5 Amadeus           57,100  57,480  56,680  -0,200 -0,35%   491,… 11/03 Spain  
 6 ArcelorMittal     23,890  23,915  23,465  -0,005 -0,02%   235,… 11/03 Spain  
 7 Banco de Sabadell 1,3175  1,3245  1,2710  +0,01… +1,15%   24,3… 11/03 Spain  
 8 Bankinter         6,306   6,344   6,194   +0,088 +1,42%   4,29M 11/03 Spain  
 9 BBVA              9,936   9,974   9,830   +0,038 +0,38%   11,5… 11/03 Spain  
10 CaixaBank         4,410   4,413   4,345   +0,038 +0,87%   14,2… 11/03 Spain  
# ℹ 25 more rows
[[1]]
# A tibble: 2 × 5
  ``    Símbolo Mercado Moneda ``         
  <lgl> <chr>   <chr>   <chr>  <chr>      
1 NA    DE40    CFD     EUR    Tiempo real
2 NA    GDAXI   Xetra   EUR    Demorada   

[[2]]
# A tibble: 40 × 10
   ``    Nombre         Último  Máximo  Mínimo  Var.  `% Var.` Vol.  Hora  ``   
   <lgl> <chr>          <chr>   <chr>   <chr>   <chr> <chr>    <chr> <chr> <lgl>
 1 NA    Adidas         188,86  188,86  185,68  -0,28 -0,15%   405,… 11/03 NA   
 2 NA    Airbus Group   156,84  158,36  156,52  -1,16 -0,73%   225,… 11/03 NA   
 3 NA    Allianz        260,25  260,25  256,60  +1,45 +0,56%   705,… 17:2… NA   
 4 NA    BASF           49,060  49,060  48,420  +0,2… +0,52%   1,63M 17:2… NA   
 5 NA    Bayer          26,82   26,82   25,76   +0,55 +2,07%   4,66M 17:2… NA   
 6 NA    Beiersdorf AG  135,900 136,300 134,950 +0,8… +0,63%   205,… 11/03 NA   
 7 NA    BMW ST         106,880 107,300 106,120 -0,2… -0,24%   778,… 17:2… NA   
 8 NA    Brenntag AG    78,080  79,680  77,840  -2,2… -2,76%   396,… 17:2… NA   
 9 NA    Commerzbank    11,215  11,215  11,070  +0,0… +0,72%   3,91M 17:2… NA   
10 NA    Continental AG 66,96   69,42   66,48   -3,18 -4,53%   799,… 17:2… NA   
# ℹ 30 more rows
…
[[10]]
# A tibble: 7 × 7
  ``    Nombre                   Último `% var.` Vol.    ``    ``   
  <lgl> <chr>                    <chr>  <chr>    <chr>   <lgl> <lgl>
1 NA    Soluciones Cuatroochenta 7,10   -5,96%   2,10K   NA    NA   
2 NA    PETROBRAS PN             6,740  -4,94%   6,60K   NA    NA   
3 NA    NBI Bearings Europe      4,300  -4,87%   5,13K   NA    NA   
4 NA    Catenon                  0,6900 -4,23%   6,29K   NA    NA   
5 NA    Energy Solar Tech        3,87   -4,22%   6,93K   NA    NA   
6 NA    Soltec Power             2,36   -4,15%   360,48K NA    NA   
7 NA    Reig Jofre               2,520  -3,45%   14,16K  NA    NA   

# A tibble: 40 × 10
   ``    Nombre         Último  Máximo  Mínimo  Var.  `% Var.` Vol.  Hora  ``   
   <lgl> <chr>          <chr>   <chr>   <chr>   <chr> <chr>    <chr> <chr> <lgl>
 1 NA    Adidas         188,86  188,86  185,68  -0,28 -0,15%   405,… 11/03 NA   
 2 NA    Airbus Group   156,84  158,36  156,52  -1,16 -0,73%   225,… 11/03 NA   
 3 NA    Allianz        260,25  260,25  256,60  +1,45 +0,56%   705,… 17:2… NA   
 4 NA    BASF           49,060  49,060  48,420  +0,2… +0,52%   1,63M 17:2… NA   
 5 NA    Bayer          26,82   26,82   25,76   +0,55 +2,07%   4,66M 17:2… NA   
 6 NA    Beiersdorf AG  135,900 136,300 134,950 +0,8… +0,63%   205,… 11/03 NA   
 7 NA    BMW ST         106,880 107,300 106,120 -0,2… -0,24%   778,… 17:2… NA   
 8 NA    Brenntag AG    78,080  79,680  77,840  -2,2… -2,76%   396,… 17:2… NA   
 9 NA    Commerzbank    11,215  11,215  11,070  +0,0… +0,72%   3,91M 17:2… NA   
10 NA    Continental AG 66,96   69,42   66,48   -3,18 -4,53%   799,… 17:2… NA   
# ℹ 30 more rows
# A tibble: 40 × 9
   Nombre         Último  Máximo  Mínimo  Var.   `% Var.` Vol.    Hora   country
   <chr>          <chr>   <chr>   <chr>   <chr>  <chr>    <chr>   <chr>  <chr>  
 1 Adidas         188,86  188,86  185,68  -0,28  -0,15%   405,12K 11/03  Germany
 2 Airbus Group   156,84  158,36  156,52  -1,16  -0,73%   225,75K 11/03  Germany
 3 Allianz        260,25  260,25  256,60  +1,45  +0,56%   705,77K 17:29… Germany
 4 BASF           49,060  49,060  48,420  +0,255 +0,52%   1,63M   17:29… Germany
 5 Bayer          26,82   26,82   25,76   +0,55  +2,07%   4,66M   17:29… Germany
 6 Beiersdorf AG  135,900 136,300 134,950 +0,850 +0,63%   205,76K 11/03  Germany
 7 BMW ST         106,880 107,300 106,120 -0,260 -0,24%   778,39K 17:29… Germany
 8 Brenntag AG    78,080  79,680  77,840  -2,220 -2,76%   396,77K 17:29… Germany
 9 Commerzbank    11,215  11,215  11,070  +0,080 +0,72%   3,91M   17:29… Germany
10 Continental AG 66,96   69,42   66,48   -3,18  -4,53%   799,59K 17:29… Germany
# ℹ 30 more rows
[[1]]
# A tibble: 2 × 5
  ``    Símbolo Mercado Moneda ``         
  <lgl> <chr>   <chr>   <chr>  <chr>      
1 NA    FCHI    París   EUR    Tiempo real
2 NA    F40     CFD     EUR    Tiempo real

[[2]]
# A tibble: 40 × 10
   ``    Nombre          Último Máximo Mínimo Var.   `% Var.` Vol.   Hora  ``   
   <lgl> <chr>           <chr>  <chr>  <chr>  <chr>  <chr>    <chr>  <chr> <lgl>
 1 NA    Air Liquide     192,84 193,14 191,30 -0,82  -0,42%   424,2… 11/03 NA   
 2 NA    Airbus Group    156,80 158,34 156,52 -1,26  -0,80%   590,4… 11/03 NA   
 3 NA    Alstom          11,73  11,99  11,56  -0,28  -2,33%   1,41M  11/03 NA   
 4 NA    ArcelorMittal   23,89  23,92  23,47  +0,01  +0,04%   1,95M  11/03 NA   
 5 NA    AXA             33,28  33,33  32,89  -0,24  -0,72%   4,02M  11/03 NA   
 6 NA    BNP Paribas     59,05  59,31  58,62  +0,12  +0,20%   2,76M  11/03 NA   
 7 NA    Bouygues        36,96  36,96  36,37  +0,33  +0,90%   764,6… 11/03 NA   
 8 NA    Capgemini       224,30 224,90 222,30 -1,50  -0,66%   295,8… 11/03 NA   
 9 NA    Carrefour       15,485 15,585 15,315 +0,105 +0,68%   1,77M  11/03 NA   
10 NA    Crédit Agricole 12,88  12,88  12,69  +0,11  +0,85%   3,64M  11/03 NA   
# ℹ 30 more rows
…
[[10]]
# A tibble: 7 × 7
  ``    Nombre                   Último `% var.` Vol.    ``    ``   
  <lgl> <chr>                    <chr>  <chr>    <chr>   <lgl> <lgl>
1 NA    Soluciones Cuatroochenta 7,10   -5,96%   2,10K   NA    NA   
2 NA    PETROBRAS PN             6,740  -4,94%   6,60K   NA    NA   
3 NA    NBI Bearings Europe      4,300  -4,87%   5,13K   NA    NA   
4 NA    Catenon                  0,6900 -4,23%   6,29K   NA    NA   
5 NA    Energy Solar Tech        3,87   -4,22%   6,93K   NA    NA   
6 NA    Soltec Power             2,36   -4,15%   360,48K NA    NA   
7 NA    Reig Jofre               2,520  -3,45%   14,16K  NA    NA   

# A tibble: 40 × 10
   ``    Nombre          Último Máximo Mínimo Var.   `% Var.` Vol.   Hora  ``   
   <lgl> <chr>           <chr>  <chr>  <chr>  <chr>  <chr>    <chr>  <chr> <lgl>
 1 NA    Air Liquide     192,84 193,14 191,30 -0,82  -0,42%   424,2… 11/03 NA   
 2 NA    Airbus Group    156,80 158,34 156,52 -1,26  -0,80%   590,4… 11/03 NA   
 3 NA    Alstom          11,73  11,99  11,56  -0,28  -2,33%   1,41M  11/03 NA   
 4 NA    ArcelorMittal   23,89  23,92  23,47  +0,01  +0,04%   1,95M  11/03 NA   
 5 NA    AXA             33,28  33,33  32,89  -0,24  -0,72%   4,02M  11/03 NA   
 6 NA    BNP Paribas     59,05  59,31  58,62  +0,12  +0,20%   2,76M  11/03 NA   
 7 NA    Bouygues        36,96  36,96  36,37  +0,33  +0,90%   764,6… 11/03 NA   
 8 NA    Capgemini       224,30 224,90 222,30 -1,50  -0,66%   295,8… 11/03 NA   
 9 NA    Carrefour       15,485 15,585 15,315 +0,105 +0,68%   1,77M  11/03 NA   
10 NA    Crédit Agricole 12,88  12,88  12,69  +0,11  +0,85%   3,64M  11/03 NA   
# ℹ 30 more rows
# A tibble: 40 × 9
   Nombre          ultimo Maximo Minimo Var.   `%_Var.` Vol.    Hora  country
   <chr>           <chr>  <chr>  <chr>  <chr>  <chr>    <chr>   <chr> <chr>  
 1 Air Liquide     192,84 193,14 191,30 -0,82  -0,42%   424,21K 11/03 France 
 2 Airbus Group    156,80 158,34 156,52 -1,26  -0,80%   590,49K 11/03 France 
 3 Alstom          11,73  11,99  11,56  -0,28  -2,33%   1,41M   11/03 France 
 4 ArcelorMittal   23,89  23,92  23,47  +0,01  +0,04%   1,95M   11/03 France 
 5 AXA             33,28  33,33  32,89  -0,24  -0,72%   4,02M   11/03 France 
 6 BNP Paribas     59,05  59,31  58,62  +0,12  +0,20%   2,76M   11/03 France 
 7 Bouygues        36,96  36,96  36,37  +0,33  +0,90%   764,68K 11/03 France 
 8 Capgemini       224,30 224,90 222,30 -1,50  -0,66%   295,82K 11/03 France 
 9 Carrefour       15,485 15,585 15,315 +0,105 +0,68%   1,77M   11/03 France 
10 Crédit Agricole 12,88  12,88  12,69  +0,11  +0,85%   3,64M   11/03 France 
# ℹ 30 more rows
[[1]]
# A tibble: 100 × 10
   ``    Nombre            Último Máximo Mínimo Var.  `% Var.` Vol.  Hora  ``   
   <lgl> <chr>             <chr>  <chr>  <chr>  <chr> <chr>    <chr> <chr> <lgl>
 1 NA    3I Group          2.519… 2.525… 2.485… -4,00 -0,16%   2,52M 17:3… NA   
 2 NA    Admiral Group     2.698… 2.698… 2.563… +125… +4,86%   615,… 17:3… NA   
 3 NA    Airtel Africa     93,85  95,95  93,75  -1,90 -1,98%   2,52M 11/03 NA   
 4 NA    Anglo American    1.845… 1.854… 1.801… -5,3  -0,29%   8,32M 17:3… NA   
 5 NA    Antofagasta       1.825… 1.825… 1.724… +55,… +3,14%   904,… 17:3… NA   
 6 NA    Ashtead Group     5.046… 5.052… 4.956… +18,0 +0,36%   537,… 17:3… NA   
 7 NA    Associated Briti… 2.254… 2.256… 2.229… +12,0 +0,54%   1,21M 17:3… NA   
 8 NA    AstraZeneca       10.45… 10.45… 10.10… +254… +2,49%   8,85M 17:3… NA   
 9 NA    Auto Trader Grou… 748,00 748,00 732,80 +7,00 +0,95%   2,63M 17:3… NA   
10 NA    Aviva             464,70 473,10 464,70 -5,80 -1,23%   28,5… 17:3… NA   
# ℹ 90 more rows
…
[[9]]
# A tibble: 7 × 7
  ``    Nombre                   Último `% var.` Vol.    ``    ``   
  <lgl> <chr>                    <chr>  <chr>    <chr>   <lgl> <lgl>
1 NA    Soluciones Cuatroochenta 7,10   -5,96%   2,10K   NA    NA   
2 NA    PETROBRAS PN             6,740  -4,94%   6,60K   NA    NA   
3 NA    NBI Bearings Europe      4,300  -4,87%   5,13K   NA    NA   
4 NA    Catenon                  0,6900 -4,23%   6,29K   NA    NA   
5 NA    Energy Solar Tech        3,87   -4,22%   6,93K   NA    NA   
6 NA    Soltec Power             2,36   -4,15%   360,48K NA    NA   
7 NA    Reig Jofre               2,520  -3,45%   14,16K  NA    NA   

# A tibble: 100 × 10
   ``    Nombre            Último Máximo Mínimo Var.  `% Var.` Vol.  Hora  ``   
   <lgl> <chr>             <chr>  <chr>  <chr>  <chr> <chr>    <chr> <chr> <lgl>
 1 NA    3I Group          2.519… 2.525… 2.485… -4,00 -0,16%   2,52M 17:3… NA   
 2 NA    Admiral Group     2.698… 2.698… 2.563… +125… +4,86%   615,… 17:3… NA   
 3 NA    Airtel Africa     93,85  95,95  93,75  -1,90 -1,98%   2,52M 11/03 NA   
 4 NA    Anglo American    1.845… 1.854… 1.801… -5,3  -0,29%   8,32M 17:3… NA   
 5 NA    Antofagasta       1.825… 1.825… 1.724… +55,… +3,14%   904,… 17:3… NA   
 6 NA    Ashtead Group     5.046… 5.052… 4.956… +18,0 +0,36%   537,… 17:3… NA   
 7 NA    Associated Briti… 2.254… 2.256… 2.229… +12,0 +0,54%   1,21M 17:3… NA   
 8 NA    AstraZeneca       10.45… 10.45… 10.10… +254… +2,49%   8,85M 17:3… NA   
 9 NA    Auto Trader Grou… 748,00 748,00 732,80 +7,00 +0,95%   2,63M 17:3… NA   
10 NA    Aviva             464,70 473,10 464,70 -5,80 -1,23%   28,5… 17:3… NA   
# ℹ 90 more rows
…
